<?xml version="1.0" encoding="UTF-8"?>
<svg width="153px" height="87px" viewBox="0 0 153 87" version="1.1" xmlns="http://www.w3.org/2000/svg" xmlns:xlink="http://www.w3.org/1999/xlink">
    <title>logo@1.5x</title>
    <defs>
        <polygon id="path-1" points="0.000422307686 0.7691 76.4446 0.7691 76.4446 86 0.000422307686 86"></polygon>
        <polygon id="path-3" points="0.444 0.7691 76.8876077 0.7691 76.8876077 86 0.444 86"></polygon>
    </defs>
    <g id="login" stroke="none" stroke-width="1" fill="none" fill-rule="evenodd">
        <g id="Post" transform="translate(-464.000000, -496.000000)">
            <g id="logo" transform="translate(464.000000, 496.000000)">
                <g id="Group-3" transform="translate(0.000000, 0.231100)">
                    <mask id="mask-2" fill="white">
                        <use xlink:href="#path-1"></use>
                    </mask>
                    <g id="Clip-2"></g>
                    <path d="M72.5916,0.7691 L15.0226,0.7691 C3.4086,0.7691 -3.7994,13.4001 2.1096,23.4001 L34.7456,78.6311 C40.5516,88.4571 54.7676,88.4571 60.5736,78.6311 L76.4446,51.7731 L59.6776,23.4001 C53.7696,13.4001 60.9776,0.7691 72.5916,0.7691" id="Fill-1" fill="#00ADEE" mask="url(#mask-2)"></path>
                </g>
                <g id="Group-6" transform="translate(76.000000, 0.231100)">
                    <mask id="mask-4" fill="white">
                        <use xlink:href="#path-3"></use>
                    </mask>
                    <g id="Clip-5"></g>
                    <path d="M61.865,0.7691 L4.296,0.7691 C15.91,0.7691 23.118,13.4001 17.21,23.4001 L0.444,51.7731 L16.315,78.6311 C22.12,88.4571 36.336,88.4571 42.142,78.6311 L74.779,23.4001 C80.687,13.4001 73.479,0.7691 61.865,0.7691" id="Fill-4" fill="#46FE32" mask="url(#mask-4)"></path>
                </g>
                <path d="M80.2961,1.0002 L72.5911,1.0002 C60.9771,1.0002 53.7691,13.6312 59.6781,23.6312 L76.4441,52.0042 L93.2101,23.6312 C99.1181,13.6312 91.9101,1.0002 80.2961,1.0002" id="Fill-7" fill="#22E0CD"></path>
            </g>
        </g>
    </g>
</svg>